%YAML 1.1
%TAG !u! tag:unity3d.com,2011:
--- !u!687078895 &4343727234628468602
SpriteAtlas:
  m_ObjectHideFlags: 0
  m_CorrespondingSourceObject: {fileID: 0}
  m_PrefabInstance: {fileID: 0}
  m_PrefabAsset: {fileID: 0}
  m_Name: Puzzles 003
  m_EditorData:
    serializedVersion: 2
    textureSettings:
      serializedVersion: 2
      anisoLevel: 1
      compressionQuality: 50
      maxTextureSize: 2048
      textureCompression: 0
      filterMode: 1
      generateMipMaps: 0
      readable: 0
      crunchedCompression: 0
      sRGB: 1
    platformSettings: []
    packingSettings:
      serializedVersion: 2
      padding: 4
      blockOffset: 1
      allowAlphaSplitting: 0
      enableRotation: 0
      enableTightPacking: 0
    variantMultiplier: 1
    packables:
    - {fileID: 2800000, guid: 1cfcf871ab5e1d7498a9afd71e03a279, type: 3}
    - {fileID: 2800000, guid: 4bf78c9df1f123540a245ab06beb1a86, type: 3}
    - {fileID: 2800000, guid: 81bbf3d29c0b2f84abc21aabc5e3c847, type: 3}
    - {fileID: 2800000, guid: 114bb3d6345587a48a8bf84b7bde7f95, type: 3}
    - {fileID: 2800000, guid: 335ef087139e737488f7e0a80af6f1c8, type: 3}
    - {fileID: 2800000, guid: 5a54ea270b4ad60489f3f631929b8012, type: 3}
    totalSpriteSurfaceArea: 754426
    bindAsDefault: 1
  m_MasterAtlas: {fileID: 0}
  m_PackedSprites:
  - {fileID: 21300000, guid: 1cfcf871ab5e1d7498a9afd71e03a279, type: 3}
  - {fileID: 21300000, guid: 81bbf3d29c0b2f84abc21aabc5e3c847, type: 3}
  - {fileID: 21300000, guid: 114bb3d6345587a48a8bf84b7bde7f95, type: 3}
  - {fileID: 21300000, guid: 5a54ea270b4ad60489f3f631929b8012, type: 3}
  - {fileID: 21300000, guid: 335ef087139e737488f7e0a80af6f1c8, type: 3}
  - {fileID: 21300000, guid: 4bf78c9df1f123540a245ab06beb1a86, type: 3}
  m_PackedSpriteNamesToIndex:
  - 000
  - Part 1
  - Part 2
  - Part 4
  - Part 3
  - 001
  m_Tag: Puzzles 003
  m_IsVariant: 0
