%YAML 1.1
%TAG !u! tag:unity3d.com,2011:
--- !u!687078895 &4343727234628468602
SpriteAtlas:
  m_ObjectHideFlags: 0
  m_CorrespondingSourceObject: {fileID: 0}
  m_PrefabInstance: {fileID: 0}
  m_PrefabAsset: {fileID: 0}
  m_Name: Puzzle 002
  m_EditorData:
    serializedVersion: 2
    textureSettings:
      serializedVersion: 2
      anisoLevel: 1
      compressionQuality: 50
      maxTextureSize: 2048
      textureCompression: 0
      filterMode: 1
      generateMipMaps: 0
      readable: 0
      crunchedCompression: 0
      sRGB: 1
    platformSettings: []
    packingSettings:
      serializedVersion: 2
      padding: 4
      blockOffset: 1
      allowAlphaSplitting: 0
      enableRotation: 0
      enableTightPacking: 0
    variantMultiplier: 1
    packables:
    - {fileID: 2800000, guid: c5f2c21cd2123544093f5982326eb295, type: 3}
    - {fileID: 2800000, guid: 88e5e26bc0ea0cd489a20dd390067d06, type: 3}
    - {fileID: 2800000, guid: 199a3b3e191da8b4a93149df94424439, type: 3}
    - {fileID: 2800000, guid: a1970112c03341e4c8dc72e26c2e25dc, type: 3}
    - {fileID: 2800000, guid: 65105dde6b3e4994eb29cdeebd1fc60d, type: 3}
    - {fileID: 2800000, guid: 64b8ff44220a66c4ca284d525e89cab1, type: 3}
    totalSpriteSurfaceArea: 754973
    bindAsDefault: 1
  m_MasterAtlas: {fileID: 0}
  m_PackedSprites:
  - {fileID: 21300000, guid: a1970112c03341e4c8dc72e26c2e25dc, type: 3}
  - {fileID: 21300000, guid: 64b8ff44220a66c4ca284d525e89cab1, type: 3}
  - {fileID: 21300000, guid: 88e5e26bc0ea0cd489a20dd390067d06, type: 3}
  - {fileID: 21300000, guid: c5f2c21cd2123544093f5982326eb295, type: 3}
  - {fileID: 21300000, guid: 199a3b3e191da8b4a93149df94424439, type: 3}
  - {fileID: 21300000, guid: 65105dde6b3e4994eb29cdeebd1fc60d, type: 3}
  m_PackedSpriteNamesToIndex:
  - Part 2
  - Part 4
  - 001
  - 000
  - Part 1
  - Part 3
  m_Tag: Puzzle 002
  m_IsVariant: 0
